...
----------------------------------------------------------------------
Ran 3 tests in 2.424s

OK
Name             Stmts   Miss Branch BrPart  Cover   Missing
------------------------------------------------------------
Netflix.py          54      3     10      2    92%   23-24, 74, 22->23, 73->74
TestNetflix.py      23      0      0      0   100%
------------------------------------------------------------
TOTAL               77      3     10      2    94%