.........
----------------------------------------------------------------------
Ran 9 tests in 0.024s

OK
Name             Stmts   Miss Branch BrPart  Cover   Missing
------------------------------------------------------------
Netflix.py          55      2     10      1    95%   24-25, 23->24
TestNetflix.py      48      0      0      0   100%
------------------------------------------------------------
TOTAL              103      2     10      1    97%
